[
  {
    "image": "mswinarski/atlassian-fisheye:3.7",
    "name": "fisheye",
    "cpu": 512,
    "memory": 512,
    "essential": true,
    "portMappings": [
      {
        "containerPort": 8080,
        "hostPort": 80
      }
    ]
  }
]