{
    "AWSEBDockerrunVersion": "1",
    "Image": {
        "Name": "mswinarski/atlassian-crucible:3.7",
        "Update": "true"
    },
    "Ports": [
        { 
            "ContainerPort": "8080"
        }
    ],
  	"Volumes": [
    	{
      		"HostDirectory": "/var/app/crucible_data",
      		"ContainerDirectory": "/atlassian/data/crucible"
    	}
  	],
  	"Logging": "/atlassian/data/crucible/var/log"
}